$WAVE4TIMED
$RESOLUTION 1000
I 1 "a#23#BIT_VECTOR(13 downto 0)1 ricd13 0 e#3#bitc2 01"
I 2 "e#3#bitc2 01"
$BUS INOUT 57 1 14 SUMA_BANCOMAT
$SC 1-53/4
$BUS INOUT +61 1 14 5 1 CON
$SC 58-+52/4
$BUS INOUT +61 1 14 5 0 DORITA
$SC 115-+52/4
$ENDTIME 20000
$WAVES 1-41/4 +8 +9-98/4 +17-+44/4 +8
=0 T 0
$VALUES
V 1
0
$END
$WAVES 45 +8 +49-+8/4 +53
*0
$VALUES
V 1
1
$END
$BUS S +65 1 14 5 0 CONT_1
$SC 172-+52/4
$BUS S +61 1 14 5 3 BANCOMA
$SC 229-+52/4
$ENDWAVE
