$WAVE4TIMED
$RESOLUTION 1000
I 1 "e#3#bitc2 01"
$IN 1 1 CLK
$IN 5 1 SIN
I 2 "a#22#BIT_VECTOR(1 downto 0)1 ricd1 0 e#3#bitc2 01"
$BUS IN 17 2 2 S
$SC 9 +4
$OUT +5 1 VALID
$OUT +4 1 COMPARARE_CONT
$OUT +4 1 10 1 BANCOMA
$S +4 1 SWITCH_NUMARATOR_REGISTRU
$IN +4 1 FINAL_INTRODUCERE
I 3 "a#23#BIT_VECTOR(13 downto 0)1 ricd13 0 e#3#bitc2 01"
$BUS OUT 94 3 14 SUMA_CHITANTA
$SC 38-90/4
$IN +5 1 1 9 ELECTIE
$S +4 1 FINAL_INTRODUCERE_2
I 4 "a#22#BIT_VECTOR(2 downto 0)1 ricd2 0 e#3#bitc2 01"
$BUS OUT +16 4 3 STARE
$SC 103-+8/4
$S +5 1 MODIFICA_PAROLA
$IN +4 1 RESET
$IN +4 1 SCOATE_CARD
$BUS S +60 3 14 C_SUMA_CHITANTA
$SC 128-+52/4
$BUS S +61 3 14 SUMA_BANCOMAT
$SC 185-+52/4
$BUS S +61 3 14 5 1 CON
$SC 242-+52/4
$BUS S +61 3 14 5 0 INTRODUSA
$SC 299-+52/4
$S +5 1 CLK1
$S +4 1 SIN1
$S +4 1 CLK2
$S +4 1 SIN2
$S +4 1 CLK3
$S +4 1 SIN3
$S +4 1 SIN4
$S +4 1 CLK4
$S +4 1 CLK_MENIU
$S +4 1 C_VALID
I 5 "a#23#BIT_VECTOR(15 downto 0)1 ricd15 0 e#3#bitc2 01"
$BUS S +68 5 16 PAROLA_INTRODUSA_1
$SC 396-+60/4
I 6 "a#22#BIT_VECTOR(3 downto 0)1 ricd3 0 e#3#bitc2 01"
$BUS S +21 6 4 A_RAM
$SC 461-+12/4
$BUS S +61 3 14 SUMA_DORITA
$SC 478-+52/4
$BUS S +17 4 3 C_STARE
$SC 535-+8/4
I 7 "t#4 1000#TIME"
$S +5 7 clock_time
$BUS S +64 3 14 VALOARE_CONT
$SC 556-+52/4
$BUS S +61 3 14 12 0 _2
$SC 613-+52/4
$BUS S +61 3 14 IESIRE_CONT
$SC 670-+52/4
$BUS S +61 3 14 CONT_FINAL_2
$SC 727-+52/4
$BUS S +69 5 16 PAROLA_ACTUALIZATA
$SC 784-+60/4
$BUS S +61 3 14 SUMA_FINALA_BANCOMAT
$SC 849-+52/4
$ENDTIME 10000
$WAVES 1
=0 T 0
R 1 2 =1 T 5k
$VALUES
V 3
0
1
0
$END
$WAVES 384
*0
R 1 2 =2 D 5k 1
$VALUES
V 3
0
1
0
$END
$WAVES 5-+8/4 +5 30-90/4 +5-+16/4 +5-+64/4 +5 +4 +53-+52/4 +5-+52/4 +5-+24/4 +8-+68/4 +5-+12/4 +5-+52/4 +5-+8/4 +13-+44/4 +13-+52/4 +5-+44/4 +13-+44/4 +45-+28/4 +5 +4
*0
$VALUES
V 1
0
$END
$WAVES 22 +4 604 +4 775 +4 +5-+28/4
*0
=3 D 0 2
$VALUES
V 2
0
1
$END
$WAVES 193-+44/4
*0
$VALUES
V 1
1
$END
$WAVES 718 +4
*0
=4 D 0 1
$VALUES
V 2
0
1
$END
$WAVES 857-+44/4
*0
=5 D 0 4
$VALUES
V 2
0
1
$END
$WAVES 548
*0
$VALUES
V 1
10000
$END
$ENDTIME 20000
$WAVES 1
=6 T 15k
*1
$VALUES
V 2
1
0
$END
$WAVES 384
=7 D 15k 1
*2
$VALUES
V 2
1
0
$END
$WAVES 5
=8 D 10k 3
$VALUES
V 1
1
$END
$WAVES 380
*7
$VALUES
V 1
1
$END
$ENDTIME 30000
$WAVES 1
=9 T 25k
*1
$VALUES
V 2
1
0
$END
$WAVES 384
=10 D 25k 1
*2
$VALUES
V 2
1
0
$END
$ENDTIME 40000
$WAVES 1
=11 T 35k
*1
$VALUES
V 2
1
0
$END
$WAVES 384
=12 D 35k 1
*2
$VALUES
V 2
1
0
$END
$ENDTIME 50000
$WAVES 1
=13 T 45k
*1
$VALUES
V 2
1
0
$END
$WAVES 384
=14 D 45k 1
*2
$VALUES
V 2
1
0
$END
$ENDTIME 60000
$WAVES 1
=15 T 55k
*1
$VALUES
V 2
1
0
$END
$WAVES 384
=16 D 55k 1
*2
$VALUES
V 2
1
0
$END
$WAVES 718
=17 D 55k 5
$VALUES
V 1
0
$END
$WAVES 34
=18 D 50k 3
$VALUES
V 1
1
$END
$WAVES 30
=19 D 50k 4
=20 D 10k 2
$VALUES
V 2
1
0
$END
$WAVES 722
*17
$VALUES
V 1
0
$END
$WAVES +-8
*17
$VALUES
V 1
1
$END
$WAVES +-4
*17
$VALUES
V 1
1
$END
$WAVES 670
*17
$VALUES
V 1
1
$END
$WAVES 473
=21 D 55k 7
$VALUES
V 1
1
$END
$WAVES 608
=22 D 55k 9
$VALUES
V 1
0
$END
$WAVES +-4
*22
$VALUES
V 1
0
$END
$WAVES +-4
*22
$VALUES
V 1
1
$END
$WAVES +-4
*22
$VALUES
V 1
1
$END
$WAVES 556
*22
$VALUES
V 1
1
$END
$WAVES 727
*22
$VALUES
V 1
1
$END
$WAVES +40
*22
$VALUES
V 1
1
$END
$WAVES +4
*22
$VALUES
V 1
1
$END
$WAVES +4
*22
$VALUES
V 1
0
$END
$WAVES +4
*22
$VALUES
V 1
0
$END
$WAVES +5
*22
$VALUES
V 1
0
$END
$WAVES +4
*22
$VALUES
V 1
0
$END
$WAVES +4
*22
$VALUES
V 1
0
$END
$WAVES +4
*22
$VALUES
V 1
0
$END
$WAVES +4
*22
$VALUES
V 1
0
$END
$WAVES +4
*22
$VALUES
V 1
0
$END
$WAVES +4
*22
$VALUES
V 1
0
$END
$WAVES +4
*22
$VALUES
V 1
0
$END
$WAVES +20
*22
$VALUES
V 1
1
$END
$WAVES +4
*22
$VALUES
V 1
1
$END
$WAVES +4
*22
$VALUES
V 1
1
$END
$WAVES +4
*22
$VALUES
V 1
1
$END
$WAVES 392
=23 T 60k
$VALUES
V 1
1
$END
$WAVES 543
=24 D 60k 1
$VALUES
V 1
1
$END
$WAVES 18
*24
$VALUES
V 1
1
$END
$WAVES +93
=25 D 60k 2
$VALUES
V 1
1
$END
$ENDTIME 70000
$WAVES 1
=26 T 65k
*1
$VALUES
V 2
1
0
$END
$WAVES 380
=27 D 65k 1
$VALUES
V 1
0
$END
$WAVES 13
=28 D 60k 3
$VALUES
V 1
1
$END
$WAVES 9
*28
$VALUES
V 1
1
$END
$WAVES 388
=29 T 70k
*3
$VALUES
V 2
1
0
$END
$WAVES 535
=30 D 70k 1
$VALUES
V 1
1
$END
$WAVES 103
=31 D 70k 2
$VALUES
V 1
1
$END
$WAVES 376
*31
$VALUES
V 1
1
$END
$WAVES 116
*31
$VALUES
V 1
1
$END
$ENDTIME 80000
$WAVES 1
=32 T 75k
*1
$VALUES
V 2
1
0
$END
$WAVES 34
=33 D 70k 5
$VALUES
V 1
0
$END
$WAVES 832
=34 D 80k 2
$VALUES
V 1
0
$END
$WAVES +4
*34
$VALUES
V 1
0
$END
$WAVES +4
*34
$VALUES
V 1
0
$END
$WAVES +4
*34
$VALUES
V 1
0
$END
$WAVES 116
=35 D 70k 6
$VALUES
V 1
0
$END
$WAVES 372
=36 D 75k 1
*2
$VALUES
V 2
1
0
$END
$WAVES +84
=37 D 75k 2
$VALUES
V 1
1
$END
$ENDTIME 90000
$WAVES 1
=38 T 85k
*1
$VALUES
V 2
1
0
$END
$WAVES 372
=39 D 85k 1
*2
$VALUES
V 2
1
0
$END
$WAVES +80
=40 D 85k 2
$VALUES
V 1
1
$END
$ENDTIME 100000
$WAVES 1
=41 T 95k
*1
$VALUES
V 2
1
0
$END
$WAVES 34
=42 D 90k 2
$VALUES
V 1
1
$END
$WAVES 840
=43 D 100k 2
$VALUES
V 1
1
$END
$WAVES +4
*43
$VALUES
V 1
1
$END
$WAVES 376
=44 D 95k 1
$VALUES
V 1
0
$END
$WAVES 116
=45 D 90k 3
$VALUES
V 1
1
$END
$ENDWAVE
