$WAVE4TIMED
$RESOLUTION 1000
I 1 "e#3#bitc2 01"
$IN 1 1 CLK
$IN 5 1 SIN
I 2 "a#22#BIT_VECTOR(1 downto 0)1 ricd1 0 e#3#bitc2 01"
$BUS IN 17 2 2 S
$SC 9 +4
$OUT +5 1 VALID
$OUT +4 1 COMPARARE_CONT
$OUT +4 1 10 1 BANCOMA
$IN +4 1 SWITCH_NUMARATOR_REGISTRU
$IN +4 1 FINAL_INTRODUCERE
I 3 "a#23#BIT_VECTOR(13 downto 0)1 ricd13 0 e#3#bitc2 01"
$BUS OUT 94 3 14 SUMA_CHITANTA
$SC 38-90/4
$IN +5 1 1 9 ELECTIE
$IN +4 1 FINAL_INTRODUCERE_2
I 4 "a#22#BIT_VECTOR(2 downto 0)1 ricd2 0 e#3#bitc2 01"
$BUS OUT +16 4 3 STARE
$SC 103-+8/4
$IN +5 1 MODIFICA_PAROLA
$IN +4 1 RESET
$IN +4 1 SCOATE_CARD
$BUS S +60 3 14 C_SUMA_CHITANTA
$SC 128-+52/4
$BUS S +61 3 14 SUMA_BANCOMAT
$SC 185-+52/4
$BUS S +61 3 14 5 1 CON
$SC 242-+52/4
$BUS S +61 3 14 5 0 INTRODUSA
$SC 299-+52/4
$S +5 1 C_VALID
I 5 "a#23#BIT_VECTOR(15 downto 0)1 ricd15 0 e#3#bitc2 01"
$BUS S +68 5 16 PAROLA_INTRODUSA_1
$SC 360-+60/4
I 6 "a#22#BIT_VECTOR(3 downto 0)1 ricd3 0 e#3#bitc2 01"
$BUS S +21 6 4 A_RAM
$SC 425-+12/4
$BUS S +61 3 14 SUMA_DORITA
$SC 442-+52/4
$BUS S +17 4 3 C_STARE
$SC 499-+8/4
I 7 "t#4 1000#TIME"
$S +5 7 clock_time
$BUS S +64 3 14 VALOARE_CONT
$SC 520-+52/4
$BUS S +61 3 14 12 0 _2
$SC 577-+52/4
$BUS S +61 3 14 IESIRE_CONT
$SC 634-+52/4
$BUS S +61 3 14 CONT_FINAL_2
$SC 691-+52/4
$BUS S +69 5 16 PAROLA_ACTUALIZATA
$SC 748-+60/4
$BUS S +5 3 14 SUMA_BANCOMAT
$SC 185-+52/4
$BUS S 870 3 14 5 10 FINAL
$SC 814-+52/4
$ENDTIME 10000
$WAVES 1
=0 T 0
R 1 2 =1 T 5k
$VALUES
V 3
0
1
0
$END
$WAVES 5-+8/4 +5 30-90/4 +5-+16/4 +5-+64/4 +5 +4 +53-+52/4 +5-+52/4 +5-+64/4 +5-+12/4 +5-+52/4 +5-+8/4 +13-+44/4 +13-+52/4 +5-+44/4 +13-+44/4 +45-+28/4 +6 +4
*0
$VALUES
V 1
0
$END
$WAVES 22 +4 568 +4 739 +4 +5-+28/4
*0
=2 D 0 2
$VALUES
V 2
0
1
$END
$WAVES 193-+44/4
*0
$VALUES
V 1
1
$END
$WAVES 682 +4
*0
=3 D 0 1
$VALUES
V 2
0
1
$END
$WAVES 822-+44/4
*0
=4 D 0 4
$VALUES
V 2
0
1
$END
$WAVES 512
*0
$VALUES
V 1
10000
$END
$ENDTIME 20000
$WAVES 1
=5 T 15k
*1
$VALUES
V 2
1
0
$END
$WAVES 5
=6 D 10k 3
$VALUES
V 1
1
$END
$WAVES 420
=7 D 15k 2
$VALUES
V 1
1
$END
$ENDTIME 30000
$WAVES 1
=8 T 25k
*1
$VALUES
V 2
1
0
$END
$WAVES 416
=9 D 25k 2
$VALUES
V 1
1
$END
$ENDTIME 40000
$WAVES 1
=10 T 35k
*1
$VALUES
V 2
1
0
$END
$WAVES 412
=11 D 35k 2
$VALUES
V 1
1
$END
$ENDTIME 50000
$WAVES 1
=12 T 45k
*1
$VALUES
V 2
1
0
$END
$WAVES 408
=13 D 45k 2
$VALUES
V 1
1
$END
$ENDTIME 60000
$WAVES 1
=14 T 55k
*1
$VALUES
V 2
1
0
$END
$WAVES 682
=15 D 55k 5
$VALUES
V 1
0
$END
$WAVES 30
=16 D 50k 3
$VALUES
V 1
1
$END
$WAVES 404
=17 D 55k 2
$VALUES
V 1
1
$END
$WAVES 686
*15
$VALUES
V 1
0
$END
$WAVES +-8
*15
$VALUES
V 1
1
$END
$WAVES +-4
*15
$VALUES
V 1
1
$END
$WAVES 634
*15
$VALUES
V 1
1
$END
$WAVES 437
=18 D 55k 7
$VALUES
V 1
1
$END
$WAVES 572
=19 D 55k 9
$VALUES
V 1
0
$END
$WAVES +-4
*19
$VALUES
V 1
0
$END
$WAVES +-4
*19
$VALUES
V 1
1
$END
$WAVES +-4
*19
$VALUES
V 1
1
$END
$WAVES 520
*19
$VALUES
V 1
1
$END
$WAVES 691
*19
$VALUES
V 1
1
$END
$WAVES +40
*19
$VALUES
V 1
1
$END
$WAVES +4
*19
$VALUES
V 1
1
$END
$WAVES +4
*19
$VALUES
V 1
0
$END
$WAVES +4
*19
$VALUES
V 1
0
$END
$WAVES +5
*19
$VALUES
V 1
0
$END
$WAVES +4
*19
$VALUES
V 1
0
$END
$WAVES +4
*19
$VALUES
V 1
0
$END
$WAVES +4
*19
$VALUES
V 1
0
$END
$WAVES +4
*19
$VALUES
V 1
0
$END
$WAVES +4
*19
$VALUES
V 1
0
$END
$WAVES +4
*19
$VALUES
V 1
0
$END
$WAVES +4
*19
$VALUES
V 1
0
$END
$WAVES +20
*19
$VALUES
V 1
1
$END
$WAVES +4
*19
$VALUES
V 1
1
$END
$WAVES +4
*19
$VALUES
V 1
1
$END
$WAVES +4
*19
$VALUES
V 1
1
$END
$WAVES 356
=20 T 60k
$VALUES
V 1
1
$END
$WAVES 507
=21 D 60k 1
$VALUES
V 1
1
$END
$WAVES 18
*21
$VALUES
V 1
1
$END
$WAVES +93
=22 D 60k 2
$VALUES
V 1
1
$END
$ENDTIME 70000
$WAVES 1
=23 T 65k
*1
$VALUES
V 2
1
0
$END
$WAVES 507
=24 D 70k 1
$VALUES
V 1
0
$END
$WAVES 111
=25 D 70k 2
$VALUES
V 1
0
$END
$WAVES 400
=26 D 65k 2
$VALUES
V 1
1
$END
$WAVES 503
*24
$VALUES
V 1
1
$END
$WAVES 107
*25
$VALUES
V 1
1
$END
$ENDTIME 80000
$WAVES 1
=27 T 75k
*1
$VALUES
V 2
1
0
$END
$WAVES 494
=28 D 75k 2
$VALUES
V 1
1
$END
$ENDTIME 90000
$WAVES 1
=29 T 85k
*1
$VALUES
V 2
1
0
$END
$WAVES 490
=30 D 85k 2
$VALUES
V 1
1
$END
$ENDTIME 100000
$WAVES 1
=31 T 95k
*1
$VALUES
V 2
1
0
$END
$WAVES 486
=32 D 95k 2
$VALUES
V 1
1
$END
$ENDTIME 110000
$WAVES 1
=33 T 105k
*1
$VALUES
V 2
1
0
$END
$WAVES 482
=34 D 105k 2
$VALUES
V 1
1
$END
$ENDTIME 120000
$WAVES 1
=35 T 115k
*1
$VALUES
V 2
1
0
$END
$WAVES 478
=36 D 115k 2
$VALUES
V 1
1
$END
$ENDTIME 130000
$WAVES 1
=37 T 125k
*1
$VALUES
V 2
1
0
$END
$WAVES 474
=38 D 125k 2
$VALUES
V 1
1
$END
$ENDTIME 140000
$WAVES 1
=39 T 135k
*1
$VALUES
V 2
1
0
$END
$WAVES 470
=40 D 135k 2
$VALUES
V 1
1
$END
$ENDTIME 150000
$WAVES 1
=41 T 145k
*1
$VALUES
V 2
1
0
$END
$WAVES 466
=42 D 145k 2
$VALUES
V 1
1
$END
$ENDTIME 160000
$WAVES 1
=43 T 155k
*1
$VALUES
V 2
1
0
$END
$WAVES 462
=44 D 155k 2
$VALUES
V 1
1
$END
$ENDTIME 170000
$WAVES 1
=45 T 165k
*1
$VALUES
V 2
1
0
$END
$WAVES 458
=46 D 165k 2
$VALUES
V 1
1
$END
$ENDTIME 180000
$WAVES 1
=47 T 175k
*1
$VALUES
V 2
1
0
$END
$ENDTIME 190000
$WAVES 1
=48 T 185k
*1
$VALUES
V 2
1
0
$END
$ENDTIME 200000
$WAVES 1
=49 T 195k
*1
$VALUES
V 2
1
0
$END
$ENDTIME 210000
$WAVES 1
=50 T 205k
*1
$VALUES
V 2
1
0
$END
$WAVES 34
=51 D 200k 2
$VALUES
V 1
1
$END
$ENDWAVE
